7 Orientation and Reading in Data – Math Prefresher for Political Scientists
…
Let’s try it.

library(readxl)
ober <- read_excel("data/input/ober_2018.xlsx")

Review: what does the / mean? Why do we need the data term first? Does the argument need to be in quotes?

7.5.3 Inspecting

For almost any dataset, you usually want to do a couple of standard checks first to understand what you loaded.

ober

# A tibble: 1,035 × 10
   polis_number Name  Latitude Longitude Hellenicity  Fame Size  Colonies Regime
          <dbl> <chr>    <dbl>     <dbl> <chr>       <dbl> <chr>    <dbl> <chr> 
 1            1 Alal…     42.1      9.51 most Greek   1.12 100-…        0 <NA>  
 2            2 Empo…     42.1      3.11 most barba…  2.12 25-1…        0 <NA>  
 3            3 Mass…     43.3      5.38 most Greek   4    25-1…        2 no ev…
 4            4 Rhode     42.3      3.17 most Greek   0.87 <NA>         0 <NA>  
 5            5 Abak…     38.1     15.1  most barba…  1    <NA>         0 <NA>  
 6            6 Adra…     37.7     14.8  most Greek   1    <NA>         0 <NA>  
 7            7 Agyr…     37.7     14.5  most Greek   1.25 <NA>         0 no ev…
 8            8 Aitna     38.2     15.6  most Greek   3.25 200-…        1 no ev…
 9            9 Akra…     37.3     13.6  most Greek   6.37 500 …        0 evide…
10           10 Akrai     37.1     14.9  most Greek   1.25 <NA>         0 <NA>  
# ℹ 1,025 more rows
# ℹ 1 more variable: Delian <chr>
…
