Chapter 7 Orientation and Reading in Data5 | Math Prefresher for Political Scientists
…
Let’s try it.

library(readxl)
ober <- read_excel("data/input/ober_2018.xlsx")

Review: what does the / mean? Why do we need the data term first? Does the argument need to be in quotes?

7.5.3 Inspecting

For almost any dataset, you usually want to do a couple of standard checks first to understand what you loaded.

ober

## # A tibble: 1,035 x 10
##    polis_number Name  Latitude Longitude Hellenicity  Fame Size  Colonies
##           <dbl> <chr>    <dbl>     <dbl> <chr>       <dbl> <chr>    <dbl>
##  1            1 Alal…     42.1      9.51 most Greek   1.12 100-…        0
##  2            2 Empo…     42.1      3.11 most barba…  2.12 25-1…        0
##  3            3 Mass…     43.3      5.38 most Greek   4    25-1…        2
##  4            4 Rhode     42.3      3.17 most Greek   0.87 <NA>         0
##  5            5 Abak…     38.1     15.1  most barba…  1    <NA>         0
##  6            6 Adra…     37.7     14.8  most Greek   1    <NA>         0
##  7            7 Agyr…     37.7     14.5  most Greek   1.25 <NA>         0
##  8            8 Aitna     38.2     15.6  most Greek   3.25 200-…        1
##  9            9 Akra…     37.3     13.6  most Greek   6.37 500 …        0
## 10           10 Akrai     37.1     14.9  most Greek   1.25 <NA>         0
## # … with 1,025 more rows, and 2 more variables: Regime <chr>, Delian <chr>
…
