Chapter 10 Visualization14 | Math Prefresher for Political Scientists
…
10.8 Line graphs

Line graphs are useful for plotting time trends.

The Census does not track individuals over time. So let's take up another example: The U.S. Supreme Court. Take the dataset justices_court-median.csv.

This data is adapted from the estimates of Martin and Quinn on their website http://mqscores.lsa.umich.edu/.21

justice <- read_csv("data/input/justices_court-median.csv")

What does the data look like? How do you think it is organized? What does each row represent?

justice

## # A tibble: 746 x 7
##     term justice_id justice    idealpt idealpt_sd median_idealpt median_justice
##    <dbl>      <dbl> <chr>        <dbl>      <dbl>          <dbl> <chr>         
##  1  1937         67 McReynolds   3.44       0.54          -0.568 Brandeis      
##  2  1937         68 Brandeis    -0.612      0.271         -0.568 Brandeis      
##  3  1937         71 Sutherland   1.59       0.549         -0.568 Brandeis      
##  4  1937         72 Butler       2.06       0.426         -0.568 Brandeis      
##  5  1937         74 Stone       -0.774      0.259         -0.568 Brandeis      
##  6  1937         75 Hughes2     -0.368      0.232         -0.568 Brandeis      
##  7  1937         76 O. Roberts   0.008      0.228         -0.568 Brandeis      
##  8  1937         77 Cardozo     -1.59       0.634         -0.568 Brandeis      
##  9  1937         78 Black       -2.90       0.334         -0.568 Brandeis      
## 10  1937         79 Reed        -1.06       0.342         -0.568 Brandeis      
## #  with 736 more rows
…
