Chapter 11 Joins and Merges, Wide and Long25 | Math Prefresher for Political Scientists
…
## # A tibble: 6 x 5
##   scode ccode country  year polity2
##   <chr> <dbl> <chr>   <dbl>   <dbl>
## 1 FRN     220 France   1800      -8
## 2 FRN     220 France   1801      -8
## 3 FRN     220 France   1802      -8
## 4 FRN     220 France   1803      -8
## 5 FRN     220 France   1804      -8
## 6 FRN     220 France   1805      -8

MID is a dataset that captures a dispute for a given country and year.

mid

## # A tibble: 6,132 x 5
##    ccode polity_code dispute StYear EndYear
##    <dbl> <chr>         <dbl>  <dbl>   <dbl>
##  1   200 UKG               1   1902    1903
##  2     2 USA               1   1902    1903
##  3   345 YGS               1   1913    1913
##  4   300 <NA>              1   1913    1913
##  5   339 ALB               1   1946    1946
##  6   200 UKG               1   1946    1946
##  7   200 UKG               1   1951    1952
##  8   651 EGY               1   1951    1952
##  9   630 IRN               1   1856    1857
## 10   200 UKG               1   1856    1857
## # … with 6,122 more rows
…
