Chapter 8 Manipulating Vectors and Matrices12 | Math Prefresher for Political Scientists
…
# Enter here

3

Get all the serial numbers for black, male individuals who don’t live in Ohio or Nevada.

# Enter here

8.1.1 data frames

You can think of data frames maybe as matrices-plus, because a column can take on characters as well as numbers. As we just saw, this is often useful for real data analyses.

cen10

## # A tibble: 30,871 x 4
##    state         sex      age race       
##    <chr>         <chr>  <dbl> <chr>      
##  1 New York      Female     8 White      
##  2 Ohio          Male      24 White      
##  3 Nevada        Male      37 White      
##  4 Michigan      Female    12 White      
##  5 Maryland      Female    18 Black/Negro
##  6 New Hampshire Male      50 White      
##  7 Iowa          Female    51 White      
##  8 Missouri      Female    41 White      
##  9 New Jersey    Male      62 White      
## 10 California    Male      25 White      
## # … with 30,861 more rows
…
