Chapter 9 Objects, Functions, Loops | Math Prefresher for Political Scientists
…
cen10 <- read_csv("data/input/usc2010_001percent.csv", col_types = cols())

Objects are abstract symbols in which you store data. Here we will create an object from copy, and assign cen10 to it.

copy <- cen10 

This looks the same as the original dataset:

copy

## # A tibble: 30,871 x 4
##    state         sex      age race       
##    <chr>         <chr>  <dbl> <chr>      
##  1 New York      Female     8 White      
##  2 Ohio          Male      24 White      
##  3 Nevada        Male      37 White      
##  4 Michigan      Female    12 White      
##  5 Maryland      Female    18 Black/Negro
##  6 New Hampshire Male      50 White      
##  7 Iowa          Female    51 White      
##  8 Missouri      Female    41 White      
##  9 New Jersey    Male      62 White      
## 10 California    Male      25 White      
## #  with 30,861 more rows
…
